A      01/09/23   Apple    100
A      01/09/23   Orange   150
A      02/09/23   Apple    150
B      01/09/23   Apple    200
B      02/09/23   Orange   100
B      02/09/23   Orange   250
C      01/09/23   Apple    100
C      01/09/23   Orange   150
C      02/09/23   Orange   300
