BRANCH   DATE   PRODUCT        INCOME
A      01/09/23  Apple            100
                 Orange           150
            DATE TOTAL            250
       02/09/23  Apple            150
            DATE TOTAL            150
----------BRANCH TOTAL----------  400
B      01/09/23  Apple            200
            DATE TOTAL            200
       02/09/23  Orange           350
            DATE TOTAL            350
----------BRANCH TOTAL----------  550
C      01/09/23  Apple            100
                 Orange           150
            DATE TOTAL            250
       02/09/23  Orange           300
            DATE TOTAL            300
----------BRANCH TOTAL----------  550
>          ALL TOTAL           < 1500
